{
  "count": 10002,
  "next": "http://localhost:8000/donors/?limit=25&offset=25",
  "previous": null,
  "results": [
    {
      "id": 1,
      "firstName": "Brian",
      "lastName": "Watkins",
      "serial": "0"
    },
    {
      "id": 2,
      "firstName": "Tammie",
      "lastName": "Adams",
      "serial": "1"
    },
    {
      "id": 3,
      "firstName": "Erica",
      "lastName": "Sanchez",
      "serial": "2"
    },
    {
      "id": 4,
      "firstName": "Brian",
      "lastName": "Sullivan",
      "serial": "3"
    },
    {
      "id": 5,
      "firstName": "Alyssa",
      "lastName": "Lamb",
      "serial": "4"
    },
    {
      "id": 6,
      "firstName": "Stephanie",
      "lastName": "Burch",
      "serial": "5"
    },
    {
      "id": 7,
      "firstName": "Ian",
      "lastName": "Patterson",
      "serial": "6"
    },
    {
      "id": 8,
      "firstName": "Eric",
      "lastName": "Mason",
      "serial": "7"
    },
    {
      "id": 9,
      "firstName": "Susan",
      "lastName": "Hodges",
      "serial": "8"
    },
    {
      "id": 10,
      "firstName": "Ryan",
      "lastName": "Salas",
      "serial": "9"
    },
    {
      "id": 11,
      "firstName": "Justin",
      "lastName": "Whitaker",
      "serial": "10"
    },
    {
      "id": 12,
      "firstName": "Brittney",
      "lastName": "Jordan",
      "serial": "11"
    },
    {
      "id": 13,
      "firstName": "Angela",
      "lastName": "Barajas",
      "serial": "12"
    },
    {
      "id": 14,
      "firstName": "Kenneth",
      "lastName": "Fuentes",
      "serial": "13"
    },
    {
      "id": 15,
      "firstName": "Brad",
      "lastName": "Sanchez",
      "serial": "14"
    },
    {
      "id": 16,
      "firstName": "William",
      "lastName": "Rivera",
      "serial": "15"
    },
    {
      "id": 17,
      "firstName": "Hailey",
      "lastName": "White",
      "serial": "16"
    },
    {
      "id": 18,
      "firstName": "Erik",
      "lastName": "Compton",
      "serial": "17"
    },
    {
      "id": 19,
      "firstName": "John",
      "lastName": "Nelson",
      "serial": "18"
    },
    {
      "id": 20,
      "firstName": "Ashley",
      "lastName": "Mclaughlin",
      "serial": "19"
    },
    {
      "id": 21,
      "firstName": "Jonathan",
      "lastName": "Gross",
      "serial": "20"
    },
    {
      "id": 22,
      "firstName": "Abigail",
      "lastName": "Spencer",
      "serial": "21"
    },
    {
      "id": 23,
      "firstName": "Sara",
      "lastName": "Beck",
      "serial": "22"
    },
    {
      "id": 24,
      "firstName": "Michael",
      "lastName": "Miranda",
      "serial": "23"
    },
    {
      "id": 25,
      "firstName": "Tyrone",
      "lastName": "Hamilton",
      "serial": "24"
    }
  ]
}